[score : 1123 ] [miss : 561 ] [total : 1684 ]
id,label
10,51
10,1870
10,154
10,1742
10,10
10,10
10,240
10,10
10,10
10,93
10,10
10,10
10,10
10,10
10,10
10,1394
10,44
10,613
10,127
10,154
10,10
10,10
10,10
10,10
10,10
10,10
10,126
10,10
10,10
10,1394
10,10
10,10
10,93
10,10
10,1394
10,10
10,1042
10,10
10,1647
10,122
10,1566
10,93
10,93
10,1394
10,10
10,127
10,233
10,111
10,10
10,233
100,96
100,100
100,100
100,100
100,100
100,100
100,100
100,100
100,100
100,100
100,100
100,100
100,100
100,100
100,100
100,100
100,100
100,100
100,100
100,100
100,100
100,100
100,100
100,100
100,100
1042,1043
1042,1043
1042,1042
1042,1042
1042,1042
1042,97
1042,1042
1042,1042
1042,1042
1042,1043
1042,1042
1042,1043
1042,1042
1042,1042
1042,1042
1042,1042
1042,1042
1042,1042
1042,1042
1042,1042
1042,1042
1042,1042
1042,1042
1042,1042
1042,1042
1042,1042
1042,1042
1043,1043
1043,1043
1043,1043
1043,1647
1043,1042
1043,122
1043,1043
1043,1043
1043,1043
1043,1043
1043,1042
1043,97
1043,1043
1043,1043
1043,1043
1043,1043
1043,1043
1043,1043
1043,1043
1043,1043
1043,1043
1043,1043
1043,1043
1043,1043
1043,1043
1043,1043
1043,1043
1043,1043
1043,1043
111,235
111,122
111,93
111,10
111,46
111,233
111,51
111,111
111,93
111,1043
111,147
111,143
111,111
111,97
111,111
111,44
111,1742
111,111
111,111
111,111
111,111
111,614
111,233
111,96
111,93
111,222
111,44
111,122
111,122
111,111
111,111
111,111
111,10
111,1560
111,111
111,111
111,96
111,111
111,111
111,233
111,111
111,614
111,111
111,235
111,111
111,111
111,122
111,1870
111,111
117,44
117,117
117,10
117,117
117,613
117,117
117,1042
117,1043
117,117
117,1566
117,167
117,44
117,93
117,239
117,93
117,233
117,1394
117,117
117,117
117,117
117,117
117,1566
117,117
117,117
117,44
122,122
122,46
122,122
122,122
122,122
122,122
122,10
122,122
122,127
122,122
122,122
122,44
122,122
122,122
122,239
122,122
122,122
122,44
122,143
122,122
122,122
122,167
122,122
122,85
122,1560
122,1647
122,1647
122,122
122,122
122,122
122,122
122,85
122,10
122,122
122,122
122,239
122,122
122,122
122,122
122,122
122,122
122,122
122,122
122,122
122,122
122,239
122,122
122,91
122,122
126,97
126,93
126,126
126,126
126,614
126,197
126,1742
126,613
126,96
126,126
126,143
126,126
126,126
126,126
126,126
126,1394
126,126
126,1742
126,126
126,126
126,1042
126,143
126,126
126,97
126,126
126,126
126,126
126,126
126,1394
126,126
126,126
126,126
126,126
126,1394
126,1742
126,126
126,126
126,1043
126,126
126,1394
126,126
126,126
126,126
126,126
126,126
126,126
126,126
126,97
126,126
126,1394
127,127
127,127
127,127
127,127
127,127
127,122
127,127
127,127
127,127
127,1742
127,93
127,97
127,46
127,127
127,154
127,127
127,127
127,127
127,127
127,127
127,127
127,154
127,154
127,154
127,127
127,127
127,127
127,127
127,127
127,127
127,127
127,127
127,127
127,127
127,1565
127,127
127,127
127,127
127,127
127,127
127,127
127,233
127,239
127,127
127,127
127,927
127,143
127,1565
127,127
1394,126
1394,10
1394,1394
1394,1394
1394,1394
1394,1394
1394,1394
1394,1394
1394,1394
1394,1394
1394,126
1394,239
1394,1394
1394,126
1394,222
1394,1394
1394,1394
1394,1394
1394,1394
1394,1394
1394,1394
1394,1394
1394,1394
1394,127
1394,1394
1394,1394
1394,126
1394,1394
1394,1394
1394,240
1394,1394
1394,1394
1394,1394
1394,126
1394,1394
1394,1394
1394,122
1394,1394
1394,1394
1394,44
1394,1394
1394,1394
1394,126
1394,1394
1394,1394
1394,126
1394,1394
1394,1394
1394,1394
143,233
143,143
143,143
143,143
143,143
143,143
143,143
143,143
143,143
143,143
143,143
143,143
143,239
143,143
143,127
143,154
143,143
143,143
143,143
143,143
143,143
143,143
143,233
143,143
143,143
143,143
143,143
143,1042
143,1042
143,143
143,143
143,143
143,143
143,143
143,143
143,143
143,143
146,1560
146,1647
146,1647
146,1647
146,1647
146,10
146,1042
146,127
146,10
146,127
146,44
146,10
146,235
146,147
146,154
146,1647
146,127
146,122
146,198
146,198
146,167
146,198
146,198
146,198
146,198
147,147
147,147
147,147
147,147
147,147
147,147
147,147
147,147
147,240
147,147
147,147
147,147
147,147
147,147
147,147
147,147
147,147
147,111
147,97
147,127
147,147
147,147
147,147
147,127
147,127
147,1560
147,147
147,1566
147,239
147,233
147,147
154,93
154,154
154,154
154,46
154,1043
154,154
154,154
154,154
154,613
154,154
154,154
154,154
154,154
154,154
154,143
154,154
154,154
154,154
154,154
154,143
154,154
154,154
154,154
154,154
154,154
154,614
154,154
154,235
154,154
1560,1560
1560,1560
1560,1560
1560,1560
1560,147
1560,1560
1560,147
1560,1560
1560,1560
1560,1560
1560,44
1560,1560
1560,1560
1560,44
1560,1560
1560,1560
1560,1560
1560,1560
1560,1560
1560,1560
1560,1560
1560,1560
1560,1560
1560,1560
1560,1560
1560,1560
1560,1560
1560,1560
1560,1560
1560,1560
1560,1560
1560,1560
1560,1560
1560,1560
1560,1565
1560,1560
1562,1562
1562,1562
1562,1562
1562,1562
1562,1562
1562,1562
1562,97
1562,1562
1562,1562
1562,547
1562,1566
1562,1562
1562,1562
1562,1562
1562,1566
1562,1564
1562,97
1562,1562
1562,1562
1562,1562
1562,1562
1562,1562
1562,1562
1562,1564
1562,1562
1562,1562
1562,1562
1562,1562
1562,1562
1562,1562
1562,1566
1562,1566
1562,1562
1562,1562
1562,1562
1562,1562
1564,1564
1564,1564
1564,1564
1564,1564
1564,1564
1564,1564
1564,1564
1564,1564
1564,1564
1564,1564
1564,1564
1564,97
1564,1564
1564,1564
1564,1566
1564,1564
1564,1564
1564,1564
1564,1564
1564,1566
1564,1564
1564,239
1564,1562
1564,1564
1564,1564
1564,1564
1565,1560
1565,1565
1565,1565
1565,233
1565,1565
1565,1565
1565,1565
1565,1565
1565,1565
1565,1565
1565,169
1565,1565
1565,1565
1565,1565
1565,1566
1565,1565
1565,1565
1565,91
1565,1565
1565,240
1565,1565
1565,1565
1565,44
1565,1565
1565,154
1565,1565
1565,1565
1565,1565
1565,1565
1565,1565
1565,127
1565,1565
1565,1565
1565,1565
1565,126
1565,1565
1565,1565
1565,1565
1565,1565
1565,1565
1565,1565
1565,1560
1565,1565
1565,1565
1565,1560
1565,1565
1565,1565
1565,1565
1565,1565
1565,1565
1566,1566
1566,1566
1566,1566
1566,1394
1566,1566
1566,1566
1566,1566
1566,1564
1566,1566
1566,1566
1566,1566
1566,1566
1566,1564
1566,1566
1566,1566
1566,1566
1566,1566
1566,1564
1566,1566
1566,1566
1566,127
1566,1566
1566,1566
1566,1566
1566,1566
1566,85
1566,1566
1566,1566
1566,1566
1566,1566
1566,1566
1566,1564
1566,1566
1566,1566
1566,85
1566,1566
1566,1566
1566,1566
1566,1560
1566,1566
1566,1566
1566,1566
1647,1647
1647,126
1647,1647
1647,1647
1647,1647
1647,1647
1647,1647
1647,1647
1647,1647
1647,1647
1647,1647
1647,1647
1647,1647
1647,1647
1647,1647
1647,1647
1647,1647
1647,1647
1647,1647
1647,1647
1647,1647
1647,1647
1647,122
1647,1647
1647,1647
1647,1647
1647,1647
1647,154
1647,1647
1647,1647
1647,1647
1647,1647
166,166
166,1564
166,169
166,117
166,166
166,166
166,166
166,169
166,166
166,166
166,166
166,166
166,166
166,166
166,166
166,166
166,166
166,166
166,166
166,166
166,166
166,166
166,166
166,166
166,166
166,166
166,166
166,166
166,166
166,166
166,166
167,195
167,167
167,614
167,167
167,167
167,166
167,169
167,198
167,127
167,167
167,167
167,167
167,167
167,222
167,167
167,169
167,167
167,167
167,167
167,167
167,167
167,167
167,167
167,167
167,167
167,166
167,167
167,167
167,167
167,167
167,167
167,195
167,167
167,126
167,167
169,169
169,44
169,169
169,169
169,195
169,51
169,169
169,1562
169,169
169,46
169,195
169,169
169,169
169,169
169,169
169,169
169,169
169,235
169,169
169,167
169,195
169,195
169,1043
169,169
169,169
169,169
169,169
169,169
169,169
1870,1870
1870,1870
1870,1870
1870,91
1870,1870
1870,1870
1870,827
1870,1870
1870,1870
1870,1870
1870,1870
1870,1870
1870,1870
1870,1870
1870,1870
1870,1870
1870,1870
1870,1870
1870,1870
1870,1870
1870,1870
1870,1870
1870,1870
1870,1870
1870,1870
1870,1870
1870,1870
1870,1870
1870,1870
1870,1870
1870,1870
1870,1870
1870,1870
1870,1870
1870,1870
1870,1870
1870,1870
1870,1870
1870,1870
1870,1870
1870,1870
1870,1870
1870,126
1870,1870
1870,1870
1870,1870
1870,1870
195,195
195,195
195,46
195,167
195,195
195,195
195,195
195,195
195,195
195,195
195,195
195,195
195,169
195,195
195,195
195,96
195,195
195,195
195,195
195,195
195,169
195,195
195,614
195,195
195,195
197,197
197,235
197,97
197,197
197,233
197,233
197,197
197,167
197,233
197,197
197,197
197,197
197,93
197,126
197,235
197,197
197,239
197,169
197,44
197,235
197,97
197,197
197,1566
197,222
197,111
197,197
198,198
198,198
198,198
198,198
198,198
198,167
198,198
198,198
198,198
198,198
198,198
198,198
198,198
198,198
198,198
198,51
198,198
198,198
198,198
198,198
198,198
198,167
198,195
198,198
198,93
198,198
198,198
198,97
198,198
198,198
198,198
198,198
198,198
198,198
198,1560
198,198
222,222
222,222
222,222
222,222
222,222
222,222
222,222
222,222
222,222
222,222
222,222
222,222
222,222
222,222
222,222
222,222
222,222
222,222
222,222
222,222
222,222
222,222
222,195
222,222
222,222
222,222
222,44
233,235
233,233
233,1394
233,233
233,547
233,233
233,233
233,240
233,233
233,235
233,239
233,233
233,233
233,614
233,233
233,1742
233,233
233,239
233,10
233,46
233,233
233,235
233,233
233,240
233,240
233,197
233,233
233,46
233,233
233,233
233,235
233,233
233,233
233,233
233,96
233,233
233,613
233,233
233,1565
233,927
233,233
233,97
233,93
233,233
233,147
233,154
233,122
233,233
233,126
233,46
235,10
235,1565
235,827
235,233
235,235
235,1394
235,235
235,235
235,126
235,235
235,1043
235,235
235,235
235,235
235,167
235,235
235,235
235,235
235,51
235,235
235,117
235,126
235,233
235,117
235,91
235,547
235,233
235,235
235,235
235,235
235,235
235,235
235,143
235,111
235,233
235,235
235,197
235,235
235,235
235,122
235,122
235,91
235,93
235,240
235,235
235,235
235,1042
235,235
235,96
239,613
239,51
239,93
239,239
239,239
239,239
239,240
239,1042
239,85
239,1394
239,240
239,239
239,10
239,197
239,239
239,10
239,239
239,235
239,239
239,93
239,10
239,239
239,239
239,240
239,239
239,10
239,239
239,240
239,167
239,239
239,51
239,96
239,154
239,111
239,239
239,239
239,239
239,239
239,240
239,235
239,240
239,240
239,239
239,239
239,613
239,96
239,239
239,239
239,239
240,239
240,239
240,239
240,239
240,127
240,547
240,240
240,1562
240,117
240,240
240,240
240,240
240,233
240,240
240,91
240,240
240,239
240,233
240,240
240,233
240,240
240,240
240,10
240,1394
240,233
240,240
240,240
240,240
240,240
240,235
240,166
240,1742
240,126
240,1565
240,240
240,240
240,91
240,239
240,239
240,240
240,240
240,240
240,127
240,240
240,239
240,239
240,240
240,613
240,96
240,85
44,126
44,44
44,44
44,44
44,44
44,44
44,46
44,1042
44,127
44,44
44,117
44,46
44,44
44,44
44,44
44,44
44,46
44,44
44,46
44,122
44,44
44,44
44,44
44,44
44,85
44,44
44,97
44,126
44,195
44,1394
44,96
44,44
44,44
44,97
44,44
44,44
44,44
44,44
44,44
44,44
44,44
44,44
44,44
44,44
44,44
44,44
44,44
44,240
44,44
46,46
46,46
46,46
46,46
46,96
46,46
46,46
46,46
46,46
46,46
46,46
46,46
46,46
46,46
46,46
46,46
46,111
46,46
46,239
46,46
46,44
46,46
46,46
46,44
46,46
46,46
46,46
46,46
46,46
46,44
46,46
46,46
46,198
46,46
46,46
46,46
46,46
46,46
46,46
46,167
46,46
46,44
46,46
46,46
46,46
46,46
46,46
51,51
51,51
51,51
51,51
51,51
51,51
51,51
51,51
51,51
51,51
51,51
51,51
51,51
51,51
51,51
51,51
51,51
51,51
51,51
51,51
51,51
51,51
51,51
51,51
51,51
51,51
51,51
51,51
51,44
51,51
51,1870
51,51
51,1565
51,51
51,51
547,547
547,547
547,547
547,547
547,547
547,547
547,547
547,547
547,547
547,547
547,547
547,547
547,547
547,547
547,547
547,235
547,547
547,547
547,547
547,547
547,547
547,547
547,547
547,547
547,547
547,239
547,547
613,613
613,613
613,613
613,613
613,613
613,613
613,613
613,613
613,613
613,613
613,613
613,235
613,613
613,613
613,613
613,613
613,613
613,613
613,613
613,613
613,613
613,613
613,613
613,613
613,613
613,613
613,613
613,613
614,614
614,614
614,614
614,614
614,614
614,614
614,614
614,614
614,614
614,240
614,614
614,614
614,614
614,614
614,614
614,614
614,614
614,614
614,614
614,614
614,614
614,614
614,614
614,614
614,614
614,614
614,614
614,614
827,154
827,827
827,827
827,827
827,827
827,827
827,827
827,827
827,827
827,827
827,827
827,827
827,827
827,827
827,827
827,827
827,827
827,827
827,827
827,827
827,827
827,827
827,827
827,827
827,827
827,827
85,1564
85,85
85,85
85,85
85,111
85,117
85,85
85,85
85,85
85,85
85,127
85,85
85,85
85,85
85,85
85,1394
85,233
85,85
85,1566
85,85
85,117
85,85
85,122
85,197
85,122
91,96
91,91
91,91
91,91
91,91
91,91
91,91
91,235
91,91
91,126
91,91
91,91
91,126
91,91
91,91
91,91
91,91
91,91
91,1042
91,91
91,126
91,91
91,1566
91,91
91,1566
91,126
91,1394
91,10
91,613
91,91
91,96
91,1870
927,927
927,927
927,927
927,927
927,927
927,927
927,927
927,93
927,927
927,927
927,927
927,927
927,927
927,927
927,927
927,927
927,927
927,927
927,927
927,927
927,927
927,1042
927,927
927,927
927,927
927,927
927,927
927,1566
927,927
927,927
927,927
927,927
927,927
927,927
927,927
927,927
927,927
927,927
93,93
93,126
93,10
93,93
93,613
93,44
93,93
93,111
93,127
93,111
93,111
93,147
93,111
93,44
93,111
93,154
93,44
93,827
93,93
93,122
93,111
93,197
93,111
93,93
93,93
93,93
93,126
93,93
93,93
93,96
93,614
93,96
93,85
93,93
93,1647
93,126
93,111
93,93
93,93
93,10
93,235
93,111
93,93
93,93
93,93
93,111
93,46
93,93
93,233
93,93
96,117
96,93
96,96
96,96
96,96
96,240
96,1043
96,1742
96,122
96,96
96,96
96,111
96,111
96,96
96,10
96,97
96,96
96,111
96,96
96,96
96,547
96,96
96,222
96,233
96,126
96,235
96,96
96,126
96,96
96,96
96,96
96,235
96,96
96,96
96,927
96,96
96,198
96,91
96,154
96,96
96,1560
96,96
96,96
96,93
96,122
96,96
96,197
96,195
96,10
97,195
97,1564
97,97
97,97
97,44
97,97
97,93
97,827
97,97
97,97
97,97
97,46
97,97
97,1647
97,97
97,97
97,1742
97,1647
97,51
97,195
97,97
97,97
97,222
97,85
97,10
97,97
97,46
97,97
97,97
97,85
97,198
97,97
97,97
97,97
97,93
97,97
97,97
97,147
97,167
97,235
97,97
97,97
97,97
97,97
97,93
97,97
97,97
97,97
97,51
97,97
