[hit :  1700 ] [miss : 144 ] [total : 1844 ]

id,label
119,119
119,119
119,119
119,119
119,119
119,119
119,119
119,27
119,119
119,119
119,119
119,119
119,119
119,119
119,119
119,119
119,119
119,119
119,119
119,119
119,119
119,119
119,119
119,27
119,27
119,119
119,119
119,119
119,237
119,119
119,119
119,119
119,119
119,119
119,200
119,119
119,119
119,119
119,654
119,119
12,12
12,12
12,12
12,12
12,12
12,12
12,12
12,12
12,12
12,12
12,12
12,12
12,12
12,12
12,12
12,12
12,12
12,12
12,12
12,12
12,1817
12,12
12,12
12,12
12,12
12,12
12,12
12,12
12,12
12,12
12,12
12,12
12,12
12,12
12,12
12,12
12,12
12,12
12,12
12,12
12,12
12,12
12,12
12,12
12,12
12,12
12,12
12,12
12,12
12,12
132,1814
132,132
132,132
132,132
132,132
132,132
132,132
132,132
132,132
132,132
132,132
132,132
132,132
132,132
132,132
132,132
132,132
132,243
132,132
132,132
132,132
132,132
132,132
132,132
132,132
132,132
132,132
132,132
132,132
132,132
132,132
132,132
132,132
132,132
132,132
132,132
132,132
132,132
132,132
132,132
132,132
132,132
132,132
132,132
132,132
132,132
132,132
132,237
132,132
132,132
145,145
145,145
145,145
145,145
145,145
145,145
145,119
145,145
145,145
145,145
145,145
145,145
145,145
145,145
145,145
145,145
145,145
145,119
145,145
145,145
145,145
145,145
145,145
145,145
145,145
145,145
145,145
145,145
145,145
145,145
145,145
145,145
145,145
145,119
145,145
145,145
145,145
145,145
145,145
145,119
145,145
145,145
145,145
145,145
145,145
145,145
145,145
145,145
145,145
145,145
149,149
149,149
149,27
149,149
149,620
149,149
149,149
149,149
149,149
149,149
149,186
149,237
149,237
149,149
149,149
149,132
149,132
149,237
149,149
149,1728
149,149
149,237
149,667
149,237
149,149
149,149
149,149
149,149
149,149
149,149
149,149
149,237
149,149
149,149
149,149
149,149
149,243
149,149
149,119
149,237
149,149
149,237
149,237
149,149
149,237
149,145
149,237
149,149
149,403
1714,1714
1714,1714
1714,1714
1714,1714
1714,1714
1714,1714
1714,1714
1714,1714
1714,1714
1714,1714
1714,1714
1714,1714
1714,1714
1714,1714
1714,1714
1714,1714
1714,1714
1714,1714
1714,1714
1714,1714
1714,1714
1714,1714
1714,1714
1714,1714
1714,1714
1714,1714
1714,1714
1714,1714
1714,1714
1714,1714
1714,1714
1714,1714
1714,1714
1714,1714
1714,1714
1714,1714
1714,1714
1714,1714
1714,1714
1714,1714
1714,1714
1714,1714
1714,1714
1715,1715
1715,1715
1715,1715
1715,1715
1715,1715
1715,1715
1715,1715
1715,1715
1715,1715
1715,1715
1715,1715
1715,1715
1715,1715
1715,1715
1715,1715
1715,1715
1715,1715
1715,1715
1715,1715
1715,1715
1715,1715
1715,1715
1715,1715
1715,1715
1715,1715
1715,1715
1715,1715
1715,1715
1715,1715
1715,1715
1715,1715
1715,1715
1715,1715
1715,1715
1715,1715
1715,1715
1715,1715
1715,1715
1715,1715
1715,1715
1715,1715
1715,1715
1715,1715
1715,1715
1715,1715
1728,1728
1728,1728
1728,1728
1728,224
1728,1728
1728,1728
1728,1728
1728,1728
1728,1728
1728,1728
1728,1728
1728,1728
1728,1728
1728,1728
1728,1728
1728,1728
1728,1728
1728,1728
1728,1728
1728,1728
1728,1728
1728,1728
1728,1728
1728,1728
1728,1728
1728,403
1728,1728
1728,1728
1728,1728
1728,1728
1728,1728
1728,1728
1728,1728
1728,1728
1728,1728
1728,1728
1728,1728
180,180
180,180
180,180
180,180
180,1814
180,180
180,180
180,180
180,180
180,180
180,180
180,180
180,180
180,180
180,180
180,180
180,180
180,180
180,180
180,180
180,180
180,180
180,180
180,180
180,180
180,180
180,180
180,180
180,180
180,180
180,180
180,180
180,180
180,180
180,180
180,180
180,180
180,180
180,180
180,180
180,180
180,655
180,180
180,180
180,180
180,206
180,180
180,206
180,725
1814,1814
1814,1814
1814,1814
1814,1814
1814,1814
1814,1814
1814,1814
1814,1814
1814,1814
1814,1814
1814,1814
1814,1814
1814,1814
1814,1814
1814,1814
1814,1814
1814,1814
1814,1814
1814,1814
1814,1814
1814,1814
1814,1814
1814,1814
1814,1814
1814,1814
1814,1814
1814,1814
1814,1814
1814,1814
1814,1814
1814,1814
1814,1814
1814,1814
1814,1814
1814,1814
1814,1814
1814,1814
1814,1814
1814,1814
1814,1814
1814,1814
1814,1814
1814,1814
1814,1814
1814,1814
1814,1814
1814,1814
1814,1814
1814,1814
1814,1814
1815,1815
1815,36
1815,1815
1815,1815
1815,1815
1815,1815
1815,1815
1815,1815
1815,1815
1815,1815
1815,1815
1815,1815
1815,1815
1815,1815
1815,36
1815,1815
1815,149
1815,1815
1815,1815
1815,1815
1815,1815
1815,1815
1815,1815
1815,1815
1815,1815
1815,1815
1815,1815
1815,1815
1815,1815
1815,1815
1815,1815
1815,1815
1815,1815
1815,1815
1815,1815
1815,149
1815,1817
1815,1815
1815,1815
1815,36
1815,1815
1815,1815
1815,1815
1815,12
1815,1815
1815,1815
1815,1815
1815,1815
1815,1815
1816,1816
1816,1816
1816,1816
1816,1816
1816,1816
1816,1816
1816,1816
1816,1816
1816,1816
1816,1816
1816,1816
1816,1816
1816,1816
1816,1816
1816,1816
1816,1816
1816,1816
1816,1816
1816,1816
1816,1816
1816,1816
1816,1816
1816,1816
1816,1816
1816,1816
1816,1816
1816,1816
1816,1816
1816,1816
1816,1816
1816,1816
1816,1816
1816,1816
1816,1816
1816,1816
1816,1816
1816,1816
1816,1816
1816,1816
1816,1816
1816,1816
1816,1816
1816,1816
1816,1816
1816,1816
1817,1817
1817,1817
1817,1817
1817,1817
1817,1817
1817,1817
1817,1817
1817,1817
1817,1817
1817,1817
1817,1817
1817,1817
1817,1817
1817,1817
1817,1817
1817,1817
1817,1817
1817,1817
1817,1817
1817,1817
1817,1817
1817,1817
1817,1817
1817,1817
1817,1817
1817,1817
1817,1817
1817,1817
1817,1817
1817,1817
1817,1817
1817,1817
1817,1817
1817,1817
1817,1817
1817,1817
1817,1817
1817,1817
1817,1817
1817,1817
1817,1817
1817,1817
1817,1817
1817,1817
1817,1817
1817,1817
1817,1817
1817,1817
1817,1817
1817,1817
186,186
186,186
186,186
186,186
186,186
186,186
186,186
186,186
186,186
186,186
186,186
186,186
186,186
186,186
186,186
186,149
186,186
186,186
186,186
186,186
186,186
186,186
186,186
186,186
186,186
186,186
186,186
186,186
186,186
186,258
186,186
186,186
186,186
200,200
200,200
200,200
200,200
200,200
200,242
200,200
200,200
200,200
200,200
200,200
200,200
200,200
200,200
200,620
200,200
200,200
200,200
200,200
200,200
200,200
200,200
200,200
200,200
200,149
200,200
200,200
200,200
200,149
200,200
200,200
200,200
200,200
200,200
200,200
200,200
200,200
200,620
200,200
200,200
200,200
200,200
200,200
200,200
200,200
200,200
200,200
200,200
200,200
202,202
202,202
202,202
202,202
202,202
202,202
202,202
202,202
202,202
202,202
202,202
202,202
202,202
202,202
202,202
202,202
202,202
202,202
202,202
202,202
202,202
202,202
202,202
202,202
202,202
202,202
202,202
202,202
202,202
202,202
202,202
202,202
202,202
202,202
202,202
202,202
202,202
202,202
202,202
202,202
202,202
202,202
202,202
202,202
202,202
202,202
202,202
202,202
202,202
202,202
206,206
206,206
206,206
206,206
206,206
206,206
206,206
206,206
206,206
206,206
206,206
206,206
206,206
206,206
206,98
206,206
206,206
206,180
206,206
206,206
206,206
206,206
206,206
206,206
206,206
206,653
206,206
207,207
207,207
207,207
207,207
207,207
207,207
207,207
207,207
207,207
207,207
207,207
207,207
207,207
207,207
207,207
207,207
207,207
207,207
207,207
207,207
207,207
207,620
207,207
207,207
207,207
207,207
207,207
207,207
207,207
207,207
207,207
207,207
207,207
207,207
207,207
208,208
208,208
208,208
208,208
208,208
208,208
208,208
208,208
208,208
208,208
208,208
208,208
208,208
208,208
208,208
208,208
208,208
208,208
208,208
208,208
208,208
208,208
208,208
208,208
208,208
217,217
217,217
217,217
217,217
217,217
217,217
217,217
217,217
217,217
217,217
217,217
217,217
217,217
217,217
217,217
217,217
217,217
217,217
217,217
217,217
217,217
217,217
217,217
217,217
217,224
217,217
217,217
217,217
217,217
217,217
217,217
224,224
224,224
224,224
224,224
224,224
224,224
224,224
224,224
224,224
224,224
224,224
224,224
224,224
224,224
224,224
224,224
224,224
224,460
224,224
224,224
224,224
224,224
224,224
224,224
224,224
224,224
224,224
224,224
224,224
224,224
224,224
224,224
224,224
224,224
224,224
224,224
224,224
224,224
224,224
227,227
227,227
227,227
227,227
227,227
227,227
227,227
227,227
227,227
227,227
227,227
227,227
227,227
227,237
227,620
227,227
227,227
227,227
227,227
227,227
227,227
227,227
227,227
227,227
227,227
227,227
227,227
227,227
227,227
227,227
227,227
227,227
227,227
237,789
237,149
237,149
237,237
237,237
237,237
237,237
237,27
237,237
237,258
237,237
237,237
237,237
237,237
237,237
237,237
237,27
237,145
237,237
237,738
237,149
237,738
237,738
237,237
237,149
237,149
237,237
237,119
237,149
237,237
237,237
237,237
237,149
237,237
237,237
237,119
237,237
237,237
237,1728
237,119
237,237
237,237
237,237
237,237
237,149
237,237
237,200
237,237
237,237
237,237
242,242
242,242
242,242
242,242
242,242
242,242
242,242
242,242
242,242
242,242
242,242
242,242
242,242
242,242
242,242
242,242
242,242
242,242
242,242
242,242
242,242
242,242
242,242
242,242
242,242
243,243
243,243
243,243
243,243
243,243
243,243
243,243
243,243
243,243
243,243
243,243
243,243
243,27
243,243
243,243
243,243
243,243
243,243
243,243
243,243
243,243
243,243
243,243
243,243
243,243
243,243
243,243
243,243
243,243
243,243
243,243
243,95
243,243
243,243
243,243
243,242
243,243
243,243
243,119
243,243
243,243
258,149
258,258
258,258
258,12
258,258
258,258
258,258
258,200
258,258
258,243
258,258
258,258
258,258
258,258
258,258
258,258
258,258
258,243
258,258
258,258
258,258
258,258
258,258
258,258
258,27
258,258
258,258
258,258
258,258
258,258
258,258
258,27
258,186
258,258
258,695
258,258
258,258
258,258
258,258
258,258
258,258
258,258
258,403
258,258
258,258
258,258
258,258
258,237
258,258
260,260
260,260
260,260
260,260
260,260
260,260
260,260
260,260
260,260
260,260
260,260
260,260
260,260
260,260
260,260
260,260
260,260
260,260
260,260
260,260
260,260
260,260
260,260
260,260
260,260
260,260
260,260
260,260
260,403
260,27
260,260
260,260
260,260
260,260
260,260
260,260
260,260
260,260
260,186
260,260
260,260
27,149
27,27
27,27
27,27
27,654
27,27
27,27
27,149
27,27
27,27
27,27
27,27
27,27
27,200
27,27
27,403
27,27
27,227
27,27
27,186
27,237
27,27
27,27
27,243
27,27
27,27
27,27
27,667
27,237
27,27
27,258
27,27
27,27
27,27
27,27
27,27
27,27
27,237
27,27
27,27
27,27
27,27
27,27
27,27
27,27
27,27
27,27
27,27
27,217
27,27
36,36
36,36
36,36
36,36
36,1814
36,722
36,36
36,36
36,36
36,36
36,1817
36,36
36,36
36,36
36,36
36,36
36,36
36,36
36,36
36,36
36,36
36,36
36,36
36,36
36,36
36,36
36,36
36,36
36,36
36,36
36,36
36,36
36,36
36,36
36,36
36,36
36,36
36,36
36,36
36,36
36,36
36,36
36,36
36,36
36,36
36,36
36,36
36,36
36,36
36,36
513,513
513,513
513,513
513,513
513,513
513,513
513,513
513,513
513,513
513,513
513,513
513,513
513,513
513,513
513,513
513,513
513,513
513,513
513,513
513,513
513,513
513,513
513,513
513,513
513,513
513,513
513,513
564,564
564,564
564,564
564,564
564,564
564,200
564,564
564,564
564,564
564,564
564,564
564,564
564,564
564,564
564,564
564,564
564,564
564,564
564,564
564,564
564,564
564,564
564,564
564,564
564,564
564,564
564,564
620,620
620,620
620,620
620,119
620,620
620,620
620,620
620,620
620,620
620,620
620,620
620,620
620,620
620,620
620,620
620,620
620,620
620,620
620,620
620,620
620,620
620,620
620,620
620,620
620,460
620,620
620,202
620,620
620,620
620,620
620,620
620,620
620,1715
620,620
620,620
653,653
653,653
653,653
653,653
653,653
653,653
653,653
653,653
653,653
653,653
653,653
653,653
653,653
653,653
653,653
653,653
653,653
653,653
653,653
653,653
653,653
653,653
653,653
653,653
653,653
653,653
653,653
653,653
653,653
653,653
653,653
653,653
653,653
654,654
654,654
654,654
654,654
654,654
654,654
654,654
654,654
654,654
654,654
654,654
654,654
654,654
654,654
654,654
654,654
654,654
654,403
654,654
654,654
654,654
654,654
654,654
654,654
654,654
654,654
654,654
654,654
654,654
654,654
654,654
654,654
654,654
654,654
655,655
655,655
655,655
655,655
655,655
655,655
655,655
655,655
655,655
655,655
655,655
655,655
655,655
655,27
655,655
655,655
655,655
655,655
655,655
655,655
655,655
655,655
655,655
655,655
655,655
655,655
655,655
655,655
655,655
655,655
655,655
655,655
655,655
655,655
655,655
666,666
666,666
666,666
666,666
666,666
666,666
666,666
666,666
666,666
666,666
666,666
666,666
666,666
666,666
666,666
666,666
666,666
666,666
666,666
666,666
666,666
666,666
666,666
666,666
666,666
666,666
666,666
666,666
666,666
666,666
666,666
666,666
666,666
666,666
666,666
666,666
666,666
666,666
666,666
666,666
666,666
666,666
666,666
666,666
666,666
666,666
666,666
666,666
666,666
667,667
667,667
667,667
667,667
667,667
667,667
667,667
667,667
667,667
667,667
667,667
667,667
667,667
667,667
667,667
667,667
667,667
667,667
667,667
667,667
667,667
667,667
667,667
667,667
667,667
667,667
667,667
667,667
667,667
667,667
667,667
667,667
667,667
667,667
667,667
668,668
668,668
668,668
668,668
668,668
668,668
668,668
668,668
668,668
668,668
668,668
668,668
668,668
668,668
668,668
668,668
668,668
668,668
668,668
668,668
668,668
668,668
668,668
668,668
668,668
668,668
668,668
668,668
668,668
668,668
668,668
695,695
695,695
695,695
695,695
695,695
695,695
695,695
695,695
695,695
695,695
695,695
695,695
695,695
695,695
695,695
695,695
695,695
695,695
695,695
695,695
695,242
695,695
695,695
695,695
695,695
695,695
695,695
695,695
695,695
695,695
695,695
695,695
722,722
722,722
722,722
722,722
722,722
722,722
722,722
722,722
722,722
722,722
722,722
722,722
722,722
722,722
722,722
722,722
722,722
722,722
722,722
722,722
722,722
722,722
722,722
722,722
722,722
722,722
722,722
722,722
722,722
722,95
722,722
722,722
722,722
722,722
722,722
722,722
722,722
722,722
722,722
722,722
722,722
722,722
722,722
722,722
722,722
722,722
722,722
722,722
722,722
725,725
725,725
725,725
725,725
725,725
725,725
725,725
725,725
725,725
725,725
725,725
725,725
725,460
725,725
725,725
725,725
725,725
725,725
725,725
725,725
725,725
725,725
725,95
725,725
725,725
725,725
725,725
725,725
725,725
725,725
725,725
738,738
738,738
738,695
738,738
738,738
738,738
738,738
738,738
738,738
738,738
738,738
738,738
738,738
738,738
738,738
738,738
738,145
738,738
738,738
738,738
738,738
738,738
738,738
738,738
738,738
738,738
738,738
738,738
738,738
738,738
788,789
788,788
788,788
788,788
788,788
788,788
788,788
788,788
788,788
788,788
788,788
788,788
788,788
788,788
788,789
788,788
788,788
788,788
788,789
788,788
788,788
788,788
788,788
788,788
788,788
788,788
788,788
788,788
788,788
788,788
789,789
789,789
789,789
789,789
789,789
789,789
789,789
789,789
789,789
789,789
789,789
789,789
789,789
789,789
789,789
789,789
789,789
789,789
789,789
789,789
789,789
789,789
789,789
789,789
789,789
789,789
789,789
789,789
789,789
789,789
789,789
789,789
95,95
95,95
95,95
95,95
95,95
95,95
95,95
95,95
95,95
95,95
95,95
95,95
95,95
95,95
95,95
95,95
95,95
95,95
95,95
95,95
95,95
95,95
95,95
95,95
95,95
95,95
95,95
95,95
95,95
95,95
95,722
95,95
95,95
95,95
95,95
95,95
95,95
95,95
95,95
95,722
95,95
95,95
95,95
95,95
95,95
95,95
95,95
95,95
95,95
95,95
98,98
98,98
98,98
98,98
98,98
98,98
98,98
98,98
98,98
98,98
98,98
98,98
98,98
98,243
98,98
98,98
98,98
98,258
98,98
98,98
98,98
98,186
98,98
98,98
98,98
98,98
98,98
98,98
98,98
98,98
98,98
98,98
98,98
98,98
98,98
98,98
98,98
98,98
98,95
98,98
98,98
98,98
98,98
98,98
98,149
98,98
98,98
98,98
98,98
