[hit :  1202 ] [miss : 482 ] [total : 1684 ]

id,label
10,93
10,1870
10,197
10,827
10,10
10,1043
10,10
10,1394
10,10
10,93
10,10
10,10
10,10
10,1043
10,10
10,1394
10,10
10,613
10,195
10,10
10,10
10,10
10,10
10,10
10,10
10,147
10,126
10,10
10,10
10,10
10,93
10,10
10,240
10,10
10,1742
10,240
10,239
10,10
10,1870
10,1742
10,97
10,10
10,44
10,10
10,10
10,10
10,10
10,111
10,10
10,1742
100,166
100,100
100,100
100,100
100,100
100,100
100,100
100,100
100,100
100,100
100,100
100,100
100,100
100,100
100,100
100,100
100,100
100,100
100,100
100,100
100,100
100,100
100,100
100,100
100,100
1042,127
1042,1042
1042,1042
1042,1042
1042,1042
1042,143
1042,93
1042,235
1042,1042
1042,1043
1042,1042
1042,1043
1042,1042
1042,1042
1042,1042
1042,1042
1042,1042
1042,1042
1042,1042
1042,1042
1042,1042
1042,1042
1042,1042
1042,1042
1042,1042
1042,1042
1042,1042
1043,91
1043,1043
1043,1043
1043,127
1043,1042
1043,127
1043,1043
1043,235
1043,1043
1043,1043
1043,1042
1043,1043
1043,1043
1043,1043
1043,1043
1043,1043
1043,239
1043,1043
1043,127
1043,1043
1043,1043
1043,1043
1043,1043
1043,1043
1043,1043
1043,1043
1043,1043
1043,1043
1043,1043
111,111
111,111
111,1742
111,198
111,46
111,111
111,122
111,111
111,93
111,1043
111,111
111,143
111,111
111,97
111,96
111,111
111,1394
111,111
111,111
111,111
111,111
111,100
111,44
111,111
111,93
111,1647
111,44
111,93
111,122
111,111
111,122
111,111
111,1870
111,147
111,111
111,111
111,96
111,111
111,126
111,10
111,51
111,111
111,111
111,93
111,111
111,111
111,111
111,111
111,93
117,44
117,96
117,1394
117,117
117,91
117,235
117,1043
117,1043
117,117
117,122
117,1560
117,111
117,143
117,240
117,1394
117,117
117,97
117,117
117,117
117,117
117,117
117,44
117,117
117,1043
117,117
122,122
122,85
122,122
122,93
122,122
122,122
122,96
122,122
122,122
122,126
122,10
122,44
122,122
122,122
122,239
122,239
122,122
122,122
122,143
122,122
122,122
122,122
122,122
122,122
122,122
122,122
122,1042
122,122
122,122
122,154
122,1647
122,122
122,10
122,122
122,122
122,122
122,122
122,122
122,122
122,122
122,122
122,122
122,235
122,122
122,122
122,10
122,122
122,122
122,122
126,93
126,93
126,126
126,126
126,126
126,197
126,96
126,126
126,235
126,197
126,51
126,126
126,1394
126,1394
126,126
126,1394
126,126
126,100
126,126
126,126
126,126
126,126
126,126
126,126
126,126
126,126
126,126
126,126
126,126
126,126
126,126
126,126
126,1394
126,1394
126,126
126,126
126,126
126,96
126,126
126,126
126,126
126,126
126,126
126,126
126,126
126,126
126,126
126,91
126,126
126,126
127,127
127,122
127,1043
127,127
127,127
127,122
127,127
127,127
127,10
127,239
127,827
127,111
127,127
127,127
127,154
127,127
127,127
127,127
127,127
127,127
127,127
127,127
127,154
127,127
127,154
127,127
127,127
127,127
127,127
127,127
127,127
127,127
127,127
127,127
127,122
127,127
127,127
127,127
127,127
127,127
127,127
127,233
127,85
127,235
127,127
127,927
127,127
127,1565
127,127
1394,126
1394,1394
1394,1394
1394,1394
1394,1394
1394,1394
1394,1394
1394,1394
1394,1394
1394,1394
1394,126
1394,1394
1394,1394
1394,1394
1394,127
1394,1394
1394,1394
1394,1394
1394,1394
1394,1394
1394,1394
1394,1394
1394,1394
1394,1394
1394,1394
1394,1394
1394,1394
1394,1394
1394,1394
1394,127
1394,1394
1394,1394
1394,1394
1394,1394
1394,1394
1394,1394
1394,96
1394,1394
1394,1394
1394,1394
1394,1394
1394,1394
1394,1394
1394,1394
1394,1394
1394,122
1394,1394
1394,1394
1394,1394
143,143
143,143
143,143
143,143
143,143
143,143
143,143
143,143
143,143
143,143
143,143
143,143
143,235
143,143
143,127
143,154
143,143
143,143
143,143
143,143
143,143
143,143
143,143
143,143
143,143
143,143
143,143
143,143
143,235
143,143
143,143
143,143
143,143
143,143
143,143
143,143
143,547
146,1394
146,614
146,614
146,614
146,239
146,1560
146,122
146,85
146,127
146,96
146,44
146,1560
146,233
146,233
146,235
146,1647
146,51
146,614
146,198
146,198
146,111
146,198
146,233
146,51
146,198
147,147
147,147
147,147
147,93
147,147
147,147
147,147
147,147
147,111
147,147
147,147
147,147
147,147
147,147
147,147
147,147
147,147
147,1043
147,1647
147,147
147,147
147,147
147,147
147,127
147,127
147,147
147,147
147,147
147,122
147,147
147,147
154,154
154,154
154,154
154,154
154,143
154,1647
154,154
154,154
154,143
154,154
154,154
154,154
154,154
154,154
154,127
154,111
154,154
154,154
154,154
154,154
154,154
154,154
154,154
154,154
154,154
154,91
154,154
154,154
154,154
1560,1560
1560,1560
1560,1560
1560,1560
1560,1560
1560,1560
1560,1560
1560,1560
1560,1560
1560,1560
1560,1560
1560,1560
1560,1560
1560,1560
1560,1560
1560,1560
1560,1560
1560,1560
1560,1560
1560,1560
1560,1560
1560,1560
1560,1560
1560,1560
1560,1560
1560,1560
1560,1560
1560,1560
1560,1560
1560,1560
1560,1560
1560,1560
1560,1560
1560,1560
1560,1560
1560,1560
1562,1562
1562,1562
1562,1562
1562,1564
1562,1562
1562,1562
1562,1564
1562,1562
1562,1562
1562,547
1562,1562
1562,1562
1562,1562
1562,1562
1562,1566
1562,1562
1562,167
1562,1562
1562,1562
1562,1562
1562,1562
1562,1562
1562,1562
1562,169
1562,1562
1562,1562
1562,1562
1562,1562
1562,1562
1562,1562
1562,1566
1562,1560
1562,1566
1562,1562
1562,1562
1562,1562
1564,1564
1564,1564
1564,1564
1564,1564
1564,1564
1564,1564
1564,1564
1564,1564
1564,1564
1564,1564
1564,1564
1564,96
1564,1564
1564,1564
1564,1564
1564,1564
1564,1564
1564,1564
1564,1564
1564,1564
1564,1564
1564,1564
1564,1564
1564,1564
1564,97
1564,1564
1565,1565
1565,1565
1565,1565
1565,44
1565,1565
1565,1565
1565,1565
1565,1565
1565,1565
1565,1565
1565,195
1565,1565
1565,1565
1565,1565
1565,239
1565,1565
1565,1565
1565,1565
1565,1565
1565,1566
1565,1565
1565,1565
1565,1565
1565,1565
1565,44
1565,1565
1565,1565
1565,1565
1565,1565
1565,1565
1565,1565
1565,1565
1565,1565
1565,1565
1565,233
1565,1565
1565,1565
1565,1565
1565,1565
1565,1565
1565,1565
1565,1560
1565,1565
1565,1565
1565,1565
1565,1565
1565,1565
1565,1565
1565,1565
1565,1565
1566,1564
1566,1566
1566,1566
1566,1394
1566,1566
1566,1564
1566,1566
1566,1566
1566,1566
1566,1566
1566,1566
1566,1564
1566,1566
1566,1566
1566,1566
1566,1566
1566,1566
1566,1566
1566,1566
1566,1566
1566,1562
1566,1566
1566,1566
1566,126
1566,1566
1566,1566
1566,1566
1566,1566
1566,1566
1566,1566
1566,1566
1566,1566
1566,1566
1566,1566
1566,1566
1566,1566
1566,1566
1566,1566
1566,1566
1566,1560
1566,1566
1566,1566
1647,1647
1647,126
1647,1647
1647,122
1647,1647
1647,1647
1647,1647
1647,1647
1647,1647
1647,1647
1647,1647
1647,127
1647,1647
1647,122
1647,1647
1647,1647
1647,126
1647,1647
1647,127
1647,1647
1647,97
1647,1647
1647,1647
1647,127
1647,1647
1647,1647
1647,1647
1647,1647
1647,1647
1647,1647
1647,1647
1647,1647
166,166
166,166
166,169
166,1742
166,166
166,166
166,166
166,166
166,166
166,166
166,166
166,166
166,166
166,169
166,166
166,166
166,166
166,166
166,166
166,166
166,166
166,166
166,166
166,166
166,166
166,166
166,166
166,166
166,166
166,166
166,166
167,195
167,167
167,111
167,167
167,167
167,167
167,167
167,167
167,167
167,167
167,167
167,167
167,167
167,169
167,167
167,167
167,167
167,1562
167,167
167,167
167,167
167,167
167,167
167,167
167,167
167,195
167,167
167,167
167,167
167,167
167,167
167,167
167,167
167,167
167,167
169,169
169,167
169,169
169,169
169,195
169,240
169,198
169,167
169,169
169,44
169,195
169,169
169,169
169,169
169,169
169,169
169,169
169,1566
169,169
169,169
169,169
169,167
169,169
169,169
169,166
169,169
169,169
169,169
169,169
1870,1870
1870,1870
1870,1870
1870,46
1870,1870
1870,1870
1870,1870
1870,1870
1870,1870
1870,1870
1870,1870
1870,1870
1870,1870
1870,1870
1870,1870
1870,1870
1870,1870
1870,1870
1870,1870
1870,1870
1870,1870
1870,1870
1870,1870
1870,1870
1870,1870
1870,1870
1870,1870
1870,1870
1870,1870
1870,1870
1870,1870
1870,1870
1870,1870
1870,1870
1870,1870
1870,1870
1870,1870
1870,1870
1870,1870
1870,1870
1870,1870
1870,1870
1870,1870
1870,1870
1870,1870
1870,1870
1870,1870
195,195
195,195
195,169
195,167
195,167
195,195
195,195
195,195
195,195
195,195
195,195
195,195
195,169
195,195
195,1566
195,195
195,195
195,195
195,195
195,195
195,198
195,195
195,97
195,195
195,195
197,1742
197,1742
197,235
197,197
197,235
197,233
197,197
197,122
197,197
197,197
197,197
197,197
197,97
197,126
197,235
197,197
197,197
197,197
197,44
197,91
197,97
197,197
197,1566
197,117
197,97
197,197
198,198
198,198
198,198
198,198
198,198
198,198
198,198
198,198
198,198
198,198
198,198
198,198
198,198
198,198
198,198
198,51
198,198
198,198
198,198
198,198
198,198
198,1565
198,195
198,198
198,93
198,198
198,198
198,195
198,198
198,198
198,198
198,198
198,198
198,198
198,1560
198,198
222,222
222,222
222,222
222,222
222,147
222,222
222,222
222,222
222,222
222,222
222,222
222,222
222,222
222,222
222,222
222,198
222,222
222,222
222,96
222,222
222,222
222,222
222,222
222,239
222,235
222,169
222,222
233,233
233,233
233,147
233,233
233,233
233,233
233,233
233,233
233,233
233,233
233,233
233,147
233,233
233,233
233,233
233,240
233,233
233,147
233,1565
233,93
233,233
233,91
233,233
233,233
233,117
233,1394
233,233
233,233
233,233
233,233
233,235
233,233
233,233
233,233
233,233
233,233
233,547
233,233
233,233
233,233
233,97
233,97
233,233
233,127
233,143
233,44
233,127
233,93
233,126
233,233
235,10
235,1564
235,235
235,235
235,235
235,239
235,235
235,235
235,126
235,235
235,240
235,235
235,10
235,235
235,1647
235,235
235,235
235,235
235,235
235,1870
235,96
235,233
235,143
235,235
235,147
235,51
235,233
235,235
235,235
235,235
235,235
235,111
235,111
235,235
235,126
235,111
235,122
235,235
235,235
235,235
235,1647
235,91
235,127
235,166
235,927
235,235
235,111
235,235
235,93
239,239
239,239
239,239
239,239
239,117
239,239
239,240
239,240
239,239
239,1394
239,240
239,239
239,239
239,126
239,239
239,239
239,239
239,96
239,10
239,10
239,10
239,239
239,239
239,240
239,239
239,96
239,122
239,240
239,167
239,239
239,239
239,96
239,240
239,1394
239,239
239,122
239,239
239,239
239,240
239,613
239,240
239,240
239,239
239,85
239,10
239,10
239,239
239,239
239,239
240,240
240,239
240,239
240,240
240,127
240,1394
240,240
240,240
240,198
240,240
240,235
240,239
240,1742
240,240
240,240
240,240
240,240
240,233
240,240
240,240
240,240
240,240
240,240
240,1394
240,240
240,240
240,240
240,240
240,240
240,240
240,10
240,240
240,239
240,1394
240,240
240,240
240,10
240,239
240,239
240,240
240,240
240,240
240,240
240,240
240,239
240,239
240,240
240,613
240,240
240,240
44,44
44,44
44,44
44,44
44,44
44,44
44,46
44,1394
44,127
44,44
44,44
44,46
44,44
44,44
44,44
44,44
44,1394
44,44
44,197
44,239
44,44
44,44
44,44
44,44
44,127
44,44
44,85
44,44
44,44
44,166
44,96
44,1647
44,44
44,10
44,44
44,44
44,44
44,44
44,44
44,44
44,44
44,1565
44,44
44,44
44,44
44,44
44,44
44,197
44,44
46,197
46,46
46,46
46,46
46,46
46,46
46,46
46,46
46,46
46,46
46,197
46,46
46,46
46,46
46,46
46,46
46,614
46,1564
46,239
46,46
46,44
46,46
46,46
46,46
46,46
46,46
46,46
46,46
46,46
46,44
46,46
46,46
46,46
46,46
46,46
46,46
46,46
46,46
46,46
46,46
46,46
46,46
46,46
46,46
46,46
46,46
46,46
51,51
51,51
51,51
51,51
51,51
51,51
51,51
51,51
51,51
51,51
51,51
51,51
51,51
51,51
51,51
51,51
51,51
51,51
51,51
51,51
51,51
51,51
51,51
51,51
51,51
51,85
51,51
51,51
51,198
51,51
51,1394
51,51
51,233
51,51
51,51
547,547
547,547
547,547
547,547
547,547
547,547
547,547
547,547
547,547
547,547
547,547
547,547
547,240
547,547
547,547
547,1742
547,547
547,547
547,547
547,547
547,547
547,547
547,239
547,240
547,547
547,10
547,547
613,613
613,613
613,613
613,613
613,613
613,613
613,613
613,613
613,122
613,613
613,613
613,235
613,613
613,613
613,613
613,613
613,613
613,613
613,613
613,613
613,613
613,613
613,613
613,613
613,613
613,613
613,613
613,613
614,614
614,614
614,614
614,614
614,614
614,614
614,614
614,614
614,614
614,614
614,614
614,614
614,614
614,614
614,614
614,97
614,614
614,614
614,614
614,614
614,614
614,614
614,614
614,614
614,614
614,614
614,614
614,614
827,827
827,827
827,827
827,827
827,827
827,827
827,827
827,827
827,827
827,827
827,827
827,827
827,827
827,827
827,827
827,827
827,827
827,827
827,827
827,827
827,827
827,827
827,827
827,827
827,827
827,827
85,85
85,85
85,85
85,85
85,111
85,1742
85,85
85,85
85,85
85,85
85,85
85,85
85,85
85,85
85,85
85,85
85,117
85,85
85,1566
85,85
85,117
85,85
85,85
85,1742
85,85
91,91
91,91
91,91
91,91
91,91
91,91
91,91
91,91
91,233
91,126
91,91
91,96
91,91
91,91
91,91
91,91
91,91
91,91
91,1394
91,126
91,1564
91,91
91,1566
91,96
91,91
91,126
91,1394
91,166
91,91
91,91
91,91
91,1870
927,927
927,927
927,927
927,927
927,927
927,927
927,927
927,927
927,927
927,927
927,927
927,927
927,927
927,927
927,927
927,927
927,927
927,927
927,927
927,927
927,927
927,927
927,927
927,927
927,927
927,927
927,927
927,111
927,927
927,927
927,927
927,927
927,927
927,927
927,927
927,927
927,927
927,927
93,93
93,93
93,93
93,93
93,126
93,44
93,93
93,93
93,93
93,111
93,93
93,1043
93,239
93,93
93,111
93,111
93,122
93,1394
93,93
93,122
93,111
93,197
93,927
93,93
93,93
93,126
93,10
93,93
93,93
93,97
93,96
93,96
93,117
93,197
93,93
93,1043
93,111
93,93
93,93
93,10
93,233
93,111
93,111
93,93
93,93
93,97
93,111
93,93
93,93
93,111
96,96
96,154
96,96
96,96
96,96
96,111
96,1043
96,91
96,240
96,96
96,96
96,96
96,154
96,96
96,10
96,1647
96,96
96,239
96,96
96,96
96,547
96,96
96,239
96,233
96,96
96,166
96,96
96,96
96,96
96,96
96,96
96,235
96,96
96,96
96,239
96,96
96,96
96,91
96,93
96,614
96,127
96,96
96,96
96,93
96,197
96,111
96,126
96,1742
96,96
97,97
97,46
97,97
97,97
97,169
97,97
97,93
97,197
97,111
97,97
97,97
97,1870
97,97
97,1647
97,97
97,97
97,44
97,117
97,111
97,85
97,97
97,97
97,198
97,10
97,10
97,97
97,46
97,97
97,97
97,117
97,167
97,97
97,97
97,97
97,93
97,222
97,97
97,1742
97,97
97,117
97,97
97,97
97,97
97,97
97,197
97,97
97,10
97,97
97,44
97,97
